Journal 1,Journal 2,Citation Count
Stephen ReidMcLaughlin,Daniel S.Himmelstein,2.0
Stephen ReidMcLaughlin,BastianGreshake Tzovaras,2.0
Stephen ReidMcLaughlin,Stephen ReidMcLaughlin,1.0
Ariel RodriguezRomero,Daniel S.Himmelstein,2.0
Ariel RodriguezRomero,BastianGreshake Tzovaras,2.0
Ariel RodriguezRomero,Stephen ReidMcLaughlin,1.0
BastianGreshake Tzovaras,Daniel S.Himmelstein,2.0
BastianGreshake Tzovaras,BastianGreshake Tzovaras,2.0
BastianGreshake Tzovaras,Stephen ReidMcLaughlin,1.0
Daniel S.Himmelstein,Daniel S.Himmelstein,10.0
Daniel S.Himmelstein,BastianGreshake Tzovaras,2.0
Daniel S.Himmelstein,Stephen ReidMcLaughlin,1.0
