No.,Referenced Work,Author,Referenced By Author,Referenced By Work
1,10.1101/142760,['Daniel S.Himmelstein'],"['Stephen ReidMcLaughlin', 'Ariel RodriguezRomero', 'BastianGreshake Tzovaras', 'Daniel S.Himmelstein']","['10.7554/elife.32822', '10.7554/elife.32822', '10.7554/elife.32822', '10.7554/elife.32822']"
2,10.12688/f1000research.11366.1,['BastianGreshake Tzovaras'],"['Stephen ReidMcLaughlin', 'Ariel RodriguezRomero', 'BastianGreshake Tzovaras', 'Daniel S.Himmelstein']","['10.7554/elife.32822', '10.7554/elife.32822', '10.7554/elife.32822', '10.7554/elife.32822']"
3,10.7287/peerj.preprints.3100v1,"['Stephen ReidMcLaughlin', 'BastianGreshake Tzovaras', 'Daniel S.Himmelstein']","['Stephen ReidMcLaughlin', 'Ariel RodriguezRomero', 'BastianGreshake Tzovaras', 'Daniel S.Himmelstein']","['10.7554/elife.32822', '10.7554/elife.32822', '10.7554/elife.32822', '10.7554/elife.32822']"
4,10.7554/elife.26726,['Daniel S.Himmelstein'],['Daniel S.Himmelstein'],"['10.1186/s13059-020-02021-3', '10.1101/573782', '10.1101/730085']"
5,10.1101/2020.04.14.927251,['Daniel S.Himmelstein'],['Daniel S.Himmelstein'],['10.1101/2020.04.14.927251']
6,10.1371/journal.pcbi.1007128,['Daniel S.Himmelstein'],['Daniel S.Himmelstein'],['10.1101/2020.04.14.927251']
7,10.1098/rsif.2017.0387,['Daniel S.Himmelstein'],['Daniel S.Himmelstein'],['10.1371/journal.pcbi.1007128']
8,10.1038/sdata.2017.125,['Daniel S.Himmelstein'],['Daniel S.Himmelstein'],['10.7554/elife.26726']
9,10.1101/087619,['Daniel S.Himmelstein'],['Daniel S.Himmelstein'],['10.7554/elife.26726']
